Course - Sec,Title,Cr,St,Max,Opn,Xlst,CRN,Instructor,When,Begin,End,Where
CSE10101-01,Elements of Computing I,3,OP,20,2,Y,14824,"Pennycuff, Corey",T R - 2:00P - 3:15P,8/21/18,12/6/18,DeBartolo Hall 126
CSE20110-01,Discrete Mathematics,3,CL,73,0,,10189,"Kumar, Shreya",T R - 9:30A - 10:45A,8/21/18,12/6/18,DeBartolo Hall 131
CSE20110-02,Discrete Mathematics,3,OP,78,1,,15781,"Kumar, Shreya",T R - 11:00A - 12:15P,8/21/18,12/6/18,DeBartolo Hall 131
CSE20133-01,Intro to Computing EE Majors,3,OP,43,10,Y,15143,"Pennycuff, Corey",M W F - 9:25A - 10:15A,8/21/18,12/6/18,Nieuwland Science Hall 123
CSE20221-01,Logic Design,4,OP,60,3,,16395,"Brockman, Jay",T R - 12:30P - 1:45P,8/21/18,12/6/18,DeBartolo Hall 140
CSE20232-01,C/C++ Programming,3,OP,52,4,Y,13899,"Pennycuff, Corey",M W F - 9:25A - 10:15A,8/21/18,12/6/18,Nieuwland Science Hall 123
CSE20311-01,Fundamentals of Computing,4,CL,162,0,,15782,"Bualuan, Ramzi",M W F - 9:25A - 10:15A,8/21/18,12/6/18,DeBartolo Hall 155
CSE20600-02,CSE Service Projects,V,OP,10,10,,11718,"Madey, Gregory",TBA,8/21/18,12/6/18,TBA
CSE20600-28,CSE Service Projects,V,OP,19,19,,17348,"Kumar, Shreya",TBA,8/21/18,12/6/18,TBA
CSE21221-01,Logic Design Laboratory,0,OP,30,3,,16820,"Brockman, Jay",T - 2:00P - 3:25P,8/21/18,12/6/18,DEPARTMENTAL SPACE
CSE21221-02,Logic Design Laboratory,0,CL,30,0,,16819,"Brockman, Jay",T - 3:30P - 4:55P,8/21/18,12/6/18,DEPARTMENTAL SPACE
CSE21311-01,Fundamentals of Computing Lab,0,CL,40,0,,15783,"Bualuan, Ramzi",M - 3:00P - 3:50P,8/21/18,12/6/18,DEPARTMENTAL SPACE
CSE21311-02,Fundamentals of Computing Lab,0,CL,37,0,,15785,"Bualuan, Ramzi",M - 4:00P - 4:50P,8/21/18,12/6/18,DEPARTMENTAL SPACE
CSE21311-03,Fundamentals of Computing Lab,0,OP,25,1,,15786,"Bualuan, Ramzi",M - 5:00P - 5:50P,8/21/18,12/6/18,DEPARTMENTAL SPACE
CSE21311-04,Fundamentals of Computing Lab,0,CL,39,0,,15787,"Bualuan, Ramzi",T - 2:25P - 3:15P,8/21/18,12/6/18,DEPARTMENTAL SPACE
CSE21311-05,Fundamentals of Computing Lab,0,OP,35,13,,20241,"Bualuan, Ramzi",T - 3:30P - 4:20P,8/21/18,12/6/18,DEPARTMENTAL SPACE
CSE30125-01,Computational Methods,3,OP,4,4,Y,13539,"Westerink, Joannes",T R - 2:00P - 3:15P,8/21/18,12/6/18,DeBartolo Hall 141
CSE30151-01,Theory of Computing,3,OP,66,4,,15515,"Pennycuff, Corey",T R - 12:30P - 1:45P,8/21/18,12/6/18,DeBartolo Hall 131
CSE30246-01,Database Concepts,3,OP,105,7,,11708,"Weninger, Timothy",M W F - 9:25A - 10:15A,8/21/18,12/6/18,DeBartolo Hall 129
CSE30264-01,Computer Networks,3,CL,50,0,,14032,"Wang, Dong",M W - 12:30P - 1:45P,8/21/18,12/6/18,DeBartolo Hall 310
CSE30321-01,Computer Architecture,4,OP,102,4,Y,10821,"Niemier, Michael",T R - 11:00A - 12:15P,8/21/18,12/6/18,DeBartolo Hall 155
CSE30321-02,Computer Architecture,4,OP,8,6,Y,20076,"Niemier, Michael",T R - 11:00A - 12:15P,8/21/18,12/6/18,DeBartolo Hall 155
CSE30332-01,Programming Paradigms,3,OP,81,3,,16396,"Kumar, Shreya",M W F - 2:00P - 2:50P,8/21/18,12/6/18,DeBartolo Hall 126
CSE30341-01,Operating System Principles,3,OP,77,43,Y,16397,"Bui, Peter",T R - 9:30A - 10:45A,8/21/18,12/6/18,DeBartolo Hall 126
CSE30341-02,Operating System Principles,3,OP,10,8,Y,20077,"Bui, Peter",T R - 9:30A - 10:45A,8/21/18,12/6/18,DeBartolo Hall 126
CSE30600-02,CSE Service Projects,V,OP,10,8,,11719,"Madey, Gregory",TBA,8/21/18,12/6/18,TBA
CSE30600-03,CSE Service Projects,V,OP,10,3,,11974,"Brenner, Paul",F - 5:05P - 5:55P,8/21/18,12/6/18,DEPARTMENTAL SPACE
CSE30600-28,CSE Service Projects,V,OP,19,19,,17349,"Kumar, Shreya",TBA,8/21/18,12/6/18,TBA
CSE30872-01,Programming Challenges,3,CL,50,0,,17295,"Bui, Peter",M W F - 10:30A - 11:20A,8/21/18,12/6/18,DeBartolo Hall 317
CSE31321-01,Computer Architecture Lab,0,OP,115,16,,10822,"Niemier, Michael",TBA,8/21/18,12/6/18,TBA
CSE40113-01,Design/Analysis of Algorithms,3,OP,140,21,Y,11029,"Jung, Taeho",T R - 12:30P - 1:45P,8/21/18,12/6/18,DeBartolo Hall 102
CSE40113-02,Design/Analysis of Algorithms,3,OP,10,4,Y,17607,"Jung, Taeho",T R - 12:30P - 1:45P,8/21/18,12/6/18,DeBartolo Hall 102
CSE40166-01,Computer Graphics,3,OP,40,8,Y,12684,"Wang, Chaoli",M W F - 11:30A - 12:20P,8/21/18,12/6/18,DeBartolo Hall 125
CSE40171-01,Artificial Intelligence,3,OP,47,8,,19478,"Scheirer, Walter",M W F - 3:30P - 4:20P,8/21/18,12/6/18,DeBartolo Hall 125
CSE40175-01,Ethical & Professional Issues,3,OP,75,7,Y,15516,"Bui, Peter",T R - 11:00A - 12:15P,8/21/18,12/6/18,DeBartolo Hall 126
CSE40445-01,Hardware for Learning,3,OP,10,10,Y,20447,"Joshi, Siddharth",T R - 5:05P - 6:20P,8/21/18,12/6/18,DeBartolo Hall 118
CSE40462-01,VLSI Circuit Design,3,OP,30,25,,19479,"Kogge, Peter",T R - 2:00P - 3:15P,8/21/18,12/6/18,DeBartolo Hall 125
CSE40522-01,CPEG Capstone Design,4,OP,30,10,,17268,"Shi, Yiyu",M W F - 8:20A - 9:10A,8/21/18,12/6/18,DeBartolo Hall 125
CSE40535-01,Computer Vision,3,OP,34,5,Y,16398,"Czajka, Adam",M W F - 12:50P - 1:40P,8/21/18,12/6/18,DeBartolo Hall 125
CSE40586-01,Low Vision Mentorship Project,3,CL,6,0,Y,15178,"McMillan, Collin",TBA,8/21/18,12/6/18,TBA
CSE40600-02,CSE Service Projects,V,OP,10,9,,11720,"Madey, Gregory",TBA,8/21/18,12/6/18,TBA
CSE40600-28,CSE Service Projects,V,OP,19,7,,17350,"Kumar, Shreya",F - 3:00P - 3:50P,8/21/18,12/6/18,DeBartolo Hall 203
CSE40647-01,Data Science,3,OP,55,10,Y,14524,"Jiang, Meng",T R - 2:00P - 3:15P,8/21/18,12/6/18,DeBartolo Hall 140
CSE40657-01,Natural Language Processing,3,OP,32,10,Y,15788,"Chiang, David",M W F - 11:30A - 12:20P,8/21/18,12/6/18,DeBartolo Hall 320
CSE40793-01,Software Development Practices,3,OP,50,10,,19480,"Huang, Jane",M W - 2:00P - 3:15P,8/21/18,12/6/18,DeBartolo Hall 320
CSE40817-01,Healthcare Analytics,3,OP,25,2,,20041,"Feldman, Keith",M W F - 10:30A - 11:20A,8/21/18,12/6/18,DeBartolo Hall 125
CSE40822-01,Cloud Computing,3,OP,40,8,Y,19481,"Thain, Douglas",M W F - 10:30A - 11:20A,8/21/18,12/6/18,DeBartolo Hall 319
CSE40884-01,Network Science,3,OP,20,5,Y,19482,"Milenkovic, Tijana",M W - 2:00P - 3:15P,8/21/18,12/6/18,DeBartolo Hall 125
CSE40923-01,Case Stud. - Comp-Based Entrep,3,OP,67,5,Y,14525,"Bowyer, Kevin",W F - 3:30P - 4:45P,8/21/18,12/6/18,DeBartolo Hall 126
CSE40924-01,Building a High-Tech Startup,3,OP,22,2,Y,17269,"McLaughlin, Robert",R - 3:30P - 6:15P,8/21/18,12/6/18,DeBartolo Hall 232
CSE48901-01,Undergraduate Research,V,OP,10,10,,10110,"Bowyer, Kevin",F - 5:05P - 5:55P,8/21/18,12/6/18,DEPARTMENTAL SPACE
CSE48901-02,Undergraduate Research,V,OP,10,8,,20487,"Czajka, Adam",TBA,8/21/18,12/6/18,TBA
CSE48901-03,Undergraduate Research,V,OP,10,10,,10483,"Brockman, Jay",TBA,8/21/18,12/6/18,TBA
CSE48901-04,Undergraduate Research,V,OP,10,9,,14827,"Bualuan, Ramzi",TBA,8/21/18,12/6/18,TBA
CSE48901-05,Undergraduate Research,V,OP,10,7,,10111,"Chawla, Nitesh",TBA,8/21/18,12/6/18,TBA
CSE48901-06,Undergraduate Research,V,OP,10,10,,10484,"Chen, Danny",TBA,8/21/18,12/6/18,TBA
CSE48901-09,Undergraduate Research,V,OP,10,10,,10487,"Flynn, Patrick",TBA,8/21/18,12/6/18,TBA
CSE48901-10,Undergraduate Research,V,OP,10,10,,10567,"Hu, Xiaobo",TBA,8/21/18,12/6/18,TBA
CSE48901-11,Undergraduate Research,V,OP,10,10,,10568,"Joshi, Siddharth",TBA,8/21/18,12/6/18,TBA
CSE48901-12,Undergraduate Research,V,OP,10,9,,14830,"Kogge, Peter",TBA,8/21/18,12/6/18,TBA
CSE48901-13,Undergraduate Research,V,OP,10,10,,10569,"Madey, Gregory",TBA,8/21/18,12/6/18,TBA
CSE48901-14,Undergraduate Research,V,OP,10,9,,10570,"McMillan, Collin",TBA,8/21/18,12/6/18,TBA
CSE48901-15,Undergraduate Research,V,OP,10,10,,10582,"Milenkovic, Tijana",TBA,8/21/18,12/6/18,TBA
CSE48901-16,Undergraduate Research,V,OP,10,10,,10112,"Niemier, Michael",TBA,8/21/18,12/6/18,TBA
CSE48901-17,Undergraduate Research,V,OP,35,19,,11960,"Poellabauer, Christian",TBA,8/21/18,12/6/18,TBA
CSE48901-18,Undergraduate Research,V,OP,10,10,,11970,TBA,TBA,8/21/18,12/6/18,TBA
CSE48901-19,Undergraduate Research,V,OP,10,10,,11995,"Metoyer, Ronald",TBA,8/21/18,12/6/18,TBA
CSE48901-20,Undergraduate Research,V,OP,10,7,,12010,"Striegel, Aaron",TBA,8/21/18,12/6/18,TBA
CSE48901-21,Undergraduate Research,V,OP,10,5,,12315,"Thain, Douglas",TBA,8/21/18,12/6/18,TBA
CSE48901-22,Undergraduate Research,V,OP,10,10,,13269,"Weninger, Timothy",TBA,8/21/18,12/6/18,TBA
CSE48901-23,Undergraduate Research,V,OP,10,7,,15321,"Scheirer, Walter",TBA,8/21/18,12/6/18,TBA
CSE48901-24,Undergraduate Research,V,OP,10,10,,15339,"Shi, Yiyu",TBA,8/21/18,12/6/18,TBA
CSE48901-25,Undergraduate Research,V,OP,10,9,,15897,"Bui, Peter",TBA,8/21/18,12/6/18,TBA
CSE48901-26,Undergraduate Research,V,OP,10,10,,14828,"Uhran, John",TBA,8/21/18,12/6/18,TBA
CSE48901-27,Undergraduate Research,V,OP,10,10,,15982,"Huang, Jane",TBA,8/21/18,12/6/18,TBA
CSE48901-28,Undergraduate Research,V,OP,10,10,,19484,"Kumar, Shreya",TBA,8/21/18,12/6/18,TBA
CSE48901-29,Undergraduate Research,V,OP,10,7,,17510,"Jung, Taeho",TBA,8/21/18,12/6/18,TBA
CSE48901-30,Undergraduate Research,V,OP,5,4,,15352,"Brenner, Paul",TBA,8/21/18,12/6/18,TBA
CSE48901-31,Undergraduate Research,V,OP,10,8,,14825,"Chiang, David",TBA,8/21/18,12/6/18,TBA
CSE48901-32,Undergraduate Research,V,OP,10,9,,14831,"Wang, Chaoli",TBA,8/21/18,12/6/18,TBA
CSE48901-33,Undergraduate Research,V,OP,10,10,,14826,"Wang, Dong",TBA,8/21/18,12/6/18,TBA
CSE48901-34,Undergraduate Research,V,OP,10,10,,17515,"Jiang, Meng",TBA,8/21/18,12/6/18,TBA
CSE48901-55,Undergraduate Research,V,OP,10,10,,14829,"Nabrzyski, Jaroslaw",TBA,8/21/18,12/6/18,TBA
CSE60166-01,Computer Graphics,3,OP,7,4,Y,12741,"Wang, Chaoli",M W F - 11:30A - 12:20P,8/21/18,12/6/18,DeBartolo Hall 125
CSE60445-01,Hardware for Learning,3,OP,10,4,Y,20446,"Joshi, Siddharth",T R - 5:05P - 6:20P,8/21/18,12/6/18,DeBartolo Hall 118
CSE60535-01,Computer Vision,3,OP,13,1,Y,16824,"Czajka, Adam",M W F - 12:50P - 1:40P,8/21/18,12/6/18,DeBartolo Hall 125
CSE60586-01,Low Vision Mentorship Project,3,OP,5,3,Y,20574,"McMillan, Collin",TBA,8/21/18,12/6/18,TBA
CSE60641-01,Graduate Operating Systems,3,OP,40,7,,11520,"Poellabauer, Christian",T R - 9:30A - 10:45A,8/21/18,12/6/18,DeBartolo Hall 141
CSE60647-01,Data Science,3,OP,18,1,Y,14606,"Jiang, Meng",T R - 2:00P - 3:15P,8/21/18,12/6/18,DeBartolo Hall 140
CSE60657-01,Natural Language Processing,3,OP,14,8,Y,15846,"Chiang, David",M W F - 11:30A - 12:20P,8/21/18,12/6/18,DeBartolo Hall 320
CSE60742-01,Scalable Graph Algorithms,3,OP,25,9,,19486,"Kogge, Peter",T R - 12:30P - 1:45P,8/21/18,12/6/18,Fitzpatrick Hall of Eng. 356A
CSE60822-01,Cloud Computing,3,OP,10,3,Y,20119,"Thain, Douglas",M W F - 10:30A - 11:20A,8/21/18,12/6/18,DeBartolo Hall 319
CSE60884-01,Network Science,3,OP,20,9,Y,20078,"Milenkovic, Tijana",M W - 2:00P - 3:15P,8/21/18,12/6/18,DeBartolo Hall 125
CSE60923-01,Case Stud. - Comp-Based Entrep,3,OP,9,2,Y,14526,"Bowyer, Kevin",W F - 3:30P - 4:45P,8/21/18,12/6/18,DeBartolo Hall 126
CSE63801-01,Research Seminar I,1,OP,75,41,,10061,"Madey, Gregory",R - 3:30P - 4:45P,8/21/18,12/6/18,DeBartolo Hall 138
CSE68901-01,Thesis Direction,V,OP,10,10,,10313,"Bowyer, Kevin",TBA,8/21/18,12/6/18,TBA
CSE68901-02,Thesis Direction,V,OP,10,10,,20488,"Czajka, Adam",TBA,8/21/18,12/6/18,TBA
CSE68901-03,Thesis Direction,V,OP,10,10,,10985,"Brockman, Jay",F - 5:05P - 5:55P,8/21/18,12/6/18,DEPARTMENTAL SPACE
CSE68901-05,Thesis Direction,V,OP,10,9,,10984,"Chawla, Nitesh",TBA,8/21/18,12/6/18,TBA
CSE68901-06,Thesis Direction,V,OP,10,10,,10983,"Chen, Danny",TBA,8/21/18,12/6/18,TBA
CSE68901-09,Thesis Direction,V,OP,10,10,,10918,"Flynn, Patrick",TBA,8/21/18,12/6/18,TBA
CSE68901-10,Thesis Direction,V,OP,10,9,,10823,"Hu, Xiaobo",TBA,8/21/18,12/6/18,TBA
CSE68901-11,Thesis Direction,V,OP,10,10,,10824,"Joshi, Siddharth",TBA,8/21/18,12/6/18,TBA
CSE68901-12,Thesis Direction,V,OP,11,10,,11433,"Kogge, Peter",TBA,8/21/18,12/6/18,TBA
CSE68901-13,Thesis Direction,V,OP,10,10,,11510,"Madey, Gregory",TBA,8/21/18,12/6/18,TBA
CSE68901-14,Thesis Direction,V,OP,10,10,,10012,"McMillan, Collin",TBA,8/21/18,12/6/18,TBA
CSE68901-15,Thesis Direction,V,OP,10,10,,11961,"Milenkovic, Tijana",TBA,8/21/18,12/6/18,TBA
CSE68901-16,Thesis Direction,V,OP,10,10,,11971,"Niemier, Michael",TBA,8/21/18,12/6/18,TBA
CSE68901-17,Thesis Direction,V,OP,10,9,,11993,"Poellabauer, Christian",TBA,8/21/18,12/6/18,TBA
CSE68901-18,Thesis Direction,V,OP,10,10,,12011,TBA,TBA,8/21/18,12/6/18,TBA
CSE68901-19,Thesis Direction,V,OP,10,10,,15789,"Metoyer, Ronald",TBA,8/21/18,12/6/18,TBA
CSE68901-20,Thesis Direction,V,OP,10,10,,14833,"Striegel, Aaron",TBA,8/21/18,12/6/18,TBA
CSE68901-21,Thesis Direction,V,OP,10,10,,14835,"Thain, Douglas",TBA,8/21/18,12/6/18,TBA
CSE68901-22,Thesis Direction,V,OP,10,8,,14832,"Weninger, Timothy",TBA,8/21/18,12/6/18,TBA
CSE68901-23,Thesis Direction,V,OP,10,10,,15322,"Scheirer, Walter",TBA,8/21/18,12/6/18,TBA
CSE68901-24,Thesis Direction,V,OP,10,9,,15340,"Shi, Yiyu",TBA,8/21/18,12/6/18,TBA
CSE68901-25,Thesis Direction,V,OP,10,10,,15898,"Bui, Peter",TBA,8/21/18,12/6/18,TBA
CSE68901-27,Thesis Direction,V,OP,10,9,,15983,"Huang, Jane",TBA,8/21/18,12/6/18,TBA
CSE68901-28,Thesis Direction,V,OP,10,10,,19487,"Kumar, Shreya",TBA,8/21/18,12/6/18,TBA
CSE68901-29,Thesis Direction,V,OP,10,10,,17511,"Jung, Taeho",TBA,8/21/18,12/6/18,TBA
CSE68901-30,Thesis Direction,V,OP,5,5,,16006,"Brenner, Paul",TBA,8/21/18,12/6/18,TBA
CSE68901-31,Thesis Direction,V,OP,10,10,,14834,"Chiang, David",TBA,8/21/18,12/6/18,TBA
CSE68901-32,Thesis Direction,V,OP,10,10,,14836,"Wang, Chaoli",TBA,8/21/18,12/6/18,TBA
CSE68901-33,Thesis Direction,V,OP,10,10,,14837,"Wang, Dong",TBA,8/21/18,12/6/18,TBA
CSE68901-34,Thesis Direction,V,OP,10,10,,17516,"Jiang, Meng",TBA,8/21/18,12/6/18,TBA
CSE68901-55,Thesis Direction,V,OP,5,5,,14235,"Nabrzyski, Jaroslaw",TBA,8/21/18,12/6/18,TBA
CSE68905-01,Nonresident Dissertation Rsrch,V,OP,5,5,,14673,"Bowyer, Kevin",TBA,8/21/18,12/6/18,TBA
CSE68905-02,Nonresident Dissertation Rsrch,V,OP,10,10,,20489,"Czajka, Adam",TBA,8/21/18,12/6/18,TBA
CSE68905-03,Nonresident Dissertation Rsrch,V,OP,10,10,,14966,"Brockman, Jay",TBA,8/21/18,12/6/18,TBA
CSE68905-05,Nonresident Dissertation Rsrch,V,OP,10,10,,14955,"Chawla, Nitesh",TBA,8/21/18,12/6/18,TBA
CSE68905-06,Nonresident Dissertation Rsrch,V,OP,10,10,,14965,"Chen, Danny",TBA,8/21/18,12/6/18,TBA
CSE68905-09,Nonresident Dissertation Rsrch,V,OP,10,10,,14950,"Flynn, Patrick",TBA,8/21/18,12/6/18,TBA
CSE68905-10,Nonresident Dissertation Rsrch,V,OP,10,10,,14969,"Hu, Xiaobo",TBA,8/21/18,12/6/18,TBA
CSE68905-11,Nonresident Dissertation Rsrch,V,OP,10,10,,14953,"Joshi, Siddharth",TBA,8/21/18,12/6/18,TBA
CSE68905-12,Nonresident Dissertation Rsrch,V,OP,10,10,,14970,"Kogge, Peter",TBA,8/21/18,12/6/18,TBA
CSE68905-13,Nonresident Dissertation Rsrch,V,OP,10,10,,14962,"Madey, Gregory",TBA,8/21/18,12/6/18,TBA
CSE68905-14,Nonresident Dissertation Rsrch,V,OP,10,10,,14951,"McMillan, Collin",TBA,8/21/18,12/6/18,TBA
CSE68905-15,Nonresident Dissertation Rsrch,V,OP,10,10,,14954,"Milenkovic, Tijana",TBA,8/21/18,12/6/18,TBA
CSE68905-16,Nonresident Dissertation Rsrch,V,OP,10,10,,14963,"Niemier, Michael",TBA,8/21/18,12/6/18,TBA
CSE68905-17,Nonresident Dissertation Rsrch,V,OP,10,10,,14956,"Poellabauer, Christian",TBA,8/21/18,12/6/18,TBA
CSE68905-18,Nonresident Dissertation Rsrch,V,OP,10,10,,14961,TBA,TBA,8/21/18,12/6/18,TBA
CSE68905-19,Nonresident Dissertation Rsrch,V,OP,10,9,,15790,"Metoyer, Ronald",TBA,8/21/18,12/6/18,TBA
CSE68905-20,Nonresident Dissertation Rsrch,V,OP,10,10,,14952,"Striegel, Aaron",TBA,8/21/18,12/6/18,TBA
CSE68905-21,Nonresident Dissertation Rsrch,V,OP,10,10,,14967,"Thain, Douglas",TBA,8/21/18,12/6/18,TBA
CSE68905-22,Nonresident Dissertation Rsrch,V,OP,10,10,,14959,"Weninger, Timothy",TBA,8/21/18,12/6/18,TBA
CSE68905-23,Nonresident Dissertation Rsrch,V,OP,10,10,,15323,"Scheirer, Walter",TBA,8/21/18,12/6/18,TBA
CSE68905-24,Nonresident Dissertation Rsrch,V,OP,10,10,,15341,"Shi, Yiyu",TBA,8/21/18,12/6/18,TBA
CSE68905-25,Nonresident Dissertation Rsrch,V,OP,10,10,,15899,"Bui, Peter",TBA,8/21/18,12/6/18,TBA
CSE68905-27,Nonresident Dissertation Rsrch,V,OP,10,9,,15984,"Huang, Jane",TBA,8/21/18,12/6/18,TBA
CSE68905-28,Nonresident Dissertation Rsrch,V,OP,10,10,,19488,"Kumar, Shreya",TBA,8/21/18,12/6/18,TBA
CSE68905-29,Nonresident Dissertation Rsrch,V,OP,10,10,,17512,"Jung, Taeho",TBA,8/21/18,12/6/18,TBA
CSE68905-31,Nonresident Dissertation Rsrch,V,OP,10,10,,14968,"Chiang, David",TBA,8/21/18,12/6/18,TBA
CSE68905-32,Nonresident Dissertation Rsrch,V,OP,10,10,,14958,"Wang, Chaoli",TBA,8/21/18,12/6/18,TBA
CSE68905-33,Nonresident Dissertation Rsrch,V,OP,10,10,,14957,"Wang, Dong",TBA,8/21/18,12/6/18,TBA
CSE68905-34,Nonresident Dissertation Rsrch,V,OP,10,10,,17517,"Jiang, Meng",TBA,8/21/18,12/6/18,TBA
CSE98901-01,Research and Dissertation,V,OP,10,6,,10314,"Bowyer, Kevin",TBA,8/21/18,12/6/18,TBA
CSE98901-02,Research and Dissertation,V,OP,10,10,,20490,"Czajka, Adam",TBA,8/21/18,12/6/18,TBA
CSE98901-03,Research and Dissertation,V,OP,10,10,,10980,"Brockman, Jay",TBA,8/21/18,12/6/18,TBA
CSE98901-05,Research and Dissertation,V,OP,15,3,,10979,"Chawla, Nitesh",TBA,8/21/18,12/6/18,TBA
CSE98901-06,Research and Dissertation,V,OP,10,2,,10978,"Chen, Danny",TBA,8/21/18,12/6/18,TBA
CSE98901-09,Research and Dissertation,V,OP,10,6,,10883,"Flynn, Patrick",TBA,8/21/18,12/6/18,TBA
CSE98901-10,Research and Dissertation,V,OP,10,3,,10825,"Hu, Xiaobo",TBA,8/21/18,12/6/18,TBA
CSE98901-11,Research and Dissertation,V,OP,10,10,,10826,"Joshi, Siddharth",TBA,8/21/18,12/6/18,TBA
CSE98901-12,Research and Dissertation,V,OP,10,9,,11434,"Kogge, Peter",TBA,8/21/18,12/6/18,TBA
CSE98901-13,Research and Dissertation,V,OP,10,10,,11511,"Madey, Gregory",TBA,8/21/18,12/6/18,TBA
CSE98901-14,Research and Dissertation,V,OP,10,7,,10981,"McMillan, Collin",TBA,8/21/18,12/6/18,TBA
CSE98901-15,Research and Dissertation,V,CL,10,0,,10014,"Milenkovic, Tijana",TBA,8/21/18,12/6/18,TBA
CSE98901-16,Research and Dissertation,V,OP,10,10,,11962,"Niemier, Michael",TBA,8/21/18,12/6/18,TBA
CSE98901-17,Research and Dissertation,V,CL,10,0,,11972,"Poellabauer, Christian",TBA,8/21/18,12/6/18,TBA
CSE98901-18,Research and Dissertation,V,OP,10,10,,11994,TBA,TBA,8/21/18,12/6/18,TBA
CSE98901-19,Research and Dissertation,V,OP,10,5,,12012,"Metoyer, Ronald",TBA,8/21/18,12/6/18,TBA
CSE98901-20,Research and Dissertation,V,OP,10,5,,14843,"Striegel, Aaron",TBA,8/21/18,12/6/18,TBA
CSE98901-21,Research and Dissertation,V,OP,10,5,,14840,"Thain, Douglas",TBA,8/21/18,12/6/18,TBA
CSE98901-22,Research and Dissertation,V,OP,10,6,,14839,"Weninger, Timothy",TBA,8/21/18,12/6/18,TBA
CSE98901-23,Research and Dissertation,V,CL,10,0,,15324,"Scheirer, Walter",TBA,8/21/18,12/6/18,TBA
CSE98901-24,Research and Dissertation,V,OP,10,3,,15342,"Shi, Yiyu",TBA,8/21/18,12/6/18,TBA
CSE98901-25,Research and Dissertation,V,OP,10,10,,15900,"Bui, Peter",TBA,8/21/18,12/6/18,TBA
CSE98901-27,Research and Dissertation,V,OP,10,5,,15985,"Huang, Jane",TBA,8/21/18,12/6/18,TBA
CSE98901-28,Research and Dissertation,V,OP,10,10,,19489,"Kumar, Shreya",TBA,8/21/18,12/6/18,TBA
CSE98901-29,Research and Dissertation,V,OP,10,7,,17513,"Jung, Taeho",TBA,8/21/18,12/6/18,TBA
CSE98901-31,Research and Dissertation,V,OP,10,3,,14842,"Chiang, David",TBA,8/21/18,12/6/18,TBA
CSE98901-32,Research and Dissertation,V,OP,10,7,,14838,"Wang, Chaoli",TBA,8/21/18,12/6/18,TBA
CSE98901-33,Research and Dissertation,V,OP,10,4,,14841,"Wang, Dong",TBA,8/21/18,12/6/18,TBA
CSE98901-34,Research and Dissertation,V,OP,10,8,,17518,"Jiang, Meng",TBA,8/21/18,12/6/18,TBA
CSE98901-55,Research and Dissertation,V,OP,10,9,,14236,"Nabrzyski, Jaroslaw",TBA,8/21/18,12/6/18,TBA
CSE98995-01,Non-resident Thesis,V,OP,10,10,,10930,"Bowyer, Kevin",TBA,8/21/18,12/6/18,TBA
CSE98995-02,Non-resident Thesis,V,OP,10,10,,20491,"Czajka, Adam",TBA,8/21/18,12/6/18,TBA
CSE98995-03,Non-resident Thesis,V,OP,10,10,,12342,"Brockman, Jay",TBA,8/21/18,12/6/18,TBA
CSE98995-05,Non-resident Thesis,V,OP,10,10,,12344,"Chawla, Nitesh",TBA,8/21/18,12/6/18,TBA
CSE98995-06,Non-resident Thesis,V,OP,10,10,,12345,"Chen, Danny",TBA,8/21/18,12/6/18,TBA
CSE98995-09,Non-resident Thesis,V,OP,10,10,,12348,"Flynn, Patrick",TBA,8/21/18,12/6/18,TBA
CSE98995-10,Non-resident Thesis,V,OP,10,10,,12349,"Hu, Xiaobo",TBA,8/21/18,12/6/18,TBA
CSE98995-11,Non-resident Thesis,V,OP,10,10,,12350,"Joshi, Siddharth",TBA,8/21/18,12/6/18,TBA
CSE98995-12,Non-resident Thesis,V,OP,10,10,,12351,"Kogge, Peter",TBA,8/21/18,12/6/18,TBA
CSE98995-13,Non-resident Thesis,V,OP,10,10,,12352,"Madey, Gregory",TBA,8/21/18,12/6/18,TBA
CSE98995-14,Non-resident Thesis,V,OP,10,10,,12353,"McMillan, Collin",TBA,8/21/18,12/6/18,TBA
CSE98995-15,Non-resident Thesis,V,OP,10,10,,13660,"Milenkovic, Tijana",TBA,8/21/18,12/6/18,TBA
CSE98995-16,Non-resident Thesis,V,OP,5,5,,14204,"Niemier, Michael",TBA,8/21/18,12/6/18,TBA
CSE98995-17,Non-resident Thesis,V,OP,10,10,,14974,"Poellabauer, Christian",TBA,8/21/18,12/6/18,TBA
CSE98995-18,Non-resident Thesis,V,OP,10,10,,14973,TBA,TBA,8/21/18,12/6/18,TBA
CSE98995-19,Non-resident Thesis,V,OP,10,10,,14669,"Metoyer, Ronald",TBA,8/21/18,12/6/18,TBA
CSE98995-20,Non-resident Thesis,V,OP,10,10,,14976,"Striegel, Aaron",TBA,8/21/18,12/6/18,TBA
CSE98995-21,Non-resident Thesis,V,OP,10,10,,14975,"Thain, Douglas",TBA,8/21/18,12/6/18,TBA
CSE98995-22,Non-resident Thesis,V,OP,10,10,,14971,"Weninger, Timothy",TBA,8/21/18,12/6/18,TBA
CSE98995-23,Non-resident Thesis,V,OP,10,10,,15325,"Scheirer, Walter",TBA,8/21/18,12/6/18,TBA
CSE98995-24,Non-resident Thesis,V,OP,10,10,,15343,"Shi, Yiyu",TBA,8/21/18,12/6/18,TBA
CSE98995-25,Non-resident Thesis,V,OP,10,10,,15901,"Bui, Peter",TBA,8/21/18,12/6/18,TBA
CSE98995-27,Non-resident Thesis,V,OP,10,10,,15986,"Huang, Jane",TBA,8/21/18,12/6/18,TBA
CSE98995-28,Non-resident Thesis,V,OP,10,10,,19490,"Kumar, Shreya",TBA,8/21/18,12/6/18,TBA
CSE98995-29,Non-resident Thesis,V,OP,10,10,,17514,"Jung, Taeho",TBA,8/21/18,12/6/18,TBA
CSE98995-31,Non-resident Thesis,V,OP,10,10,,14977,"Chiang, David",TBA,8/21/18,12/6/18,TBA
CSE98995-32,Non-resident Thesis,V,OP,10,10,,14978,"Wang, Chaoli",TBA,8/21/18,12/6/18,TBA
CSE98995-33,Non-resident Thesis,V,OP,10,10,,14972,"Wang, Dong",TBA,8/21/18,12/6/18,TBA
CSE98995-34,Non-resident Thesis,V,OP,10,10,,17519,"Jiang, Meng",TBA,8/21/18,12/6/18,TBA
